%!PS-Adobe-3.0
%%Title: HertzKnudsenLangmuirTotalPressure/HertzKnudsenLangmuirTotalPressureFvPatchScalarField.H
%%For: evesper
%%Creator: VIM - Vi IMproved 7.4 (2013 Aug 10)
%%CreationDate: Thu Mar 11 16:44:13 2021
%%DocumentData: Clean8Bit
%%Orientation: Portrait
%%Pages: (atend)
%%PageOrder: Ascend
%%BoundingBox: 59 49 564 800
%%DocumentMedia: A4 595 842 0 () ()
%%DocumentNeededResources: font Courier
%%+ font Courier-Bold
%%+ font Courier-Oblique
%%+ font Courier-BoldOblique
%%DocumentSuppliedResources: procset VIM-Prolog 1.4 1
%%+ encoding VIM-latin1 1.0 0
%%Requirements: duplex collate color
%%EndComments
%%BeginDefaults
%%PageResources: font Courier
%%+ font Courier-Bold
%%+ font Courier-Oblique
%%+ font Courier-BoldOblique
%%PageMedia: A4
%%EndDefaults
%%BeginProlog
%%BeginResource: procset VIM-Prolog
%%BeginDocument: /usr/share/vim/vim74/print/prolog.ps
%!PS-Adobe-3.0 Resource-ProcSet
%%Title: VIM-Prolog
%%Version: 1.4 1
%%EndComments
% Editing of this file is NOT RECOMMENDED.  You run a very good risk of causing
% all PostScript printing from VIM failing if you do.  PostScript is not called
% a write-only language for nothing!
/packedarray where not{userdict begin/setpacking/pop load def/currentpacking
false def end}{pop}ifelse/CP currentpacking def true setpacking
/bd{bind def}bind def/ld{load def}bd/ed{exch def}bd/d/def ld
/db{dict begin}bd/cde{currentdict end}bd
/T true d/F false d
/SO null d/sv{/SO save d}bd/re{SO restore}bd
/L2 systemdict/languagelevel 2 copy known{get exec}{pop pop 1}ifelse 2 ge d
/m/moveto ld/s/show ld /ms{m s}bd /g/setgray ld/r/setrgbcolor ld/sp{showpage}bd
/gs/gsave ld/gr/grestore ld/cp/currentpoint ld
/ul{gs UW setlinewidth cp UO add 2 copy newpath m 3 1 roll add exch lineto
stroke gr}bd
/bg{gs r cp BO add 4 -2 roll rectfill gr}bd
/sl{90 rotate 0 exch translate}bd
L2{
/sspd{mark exch{setpagedevice}stopped cleartomark}bd
/nc{1 db/NumCopies ed cde sspd}bd
/sps{3 db/Orientation ed[3 1 roll]/PageSize ed/ImagingBBox null d cde sspd}bd
/dt{2 db/Tumble ed/Duplex ed cde sspd}bd
/c{1 db/Collate ed cde sspd}bd
}{
/nc{/#copies ed}bd
/sps{statusdict/setpage get exec}bd
/dt{statusdict/settumble 2 copy known{get exec}{pop pop pop}ifelse
statusdict/setduplexmode 2 copy known{get exec}{pop pop pop}ifelse}bd
/c{pop}bd
}ifelse
/ffs{findfont exch scalefont d}bd/sf{setfont}bd
/ref{1 db findfont dup maxlength dict/NFD ed{exch dup/FID ne{exch NFD 3 1 roll
put}{pop pop}ifelse}forall/Encoding findresource dup length 256 eq{NFD/Encoding
3 -1 roll put}{pop}ifelse NFD dup/FontType get 3 ne{/CharStrings}{/CharProcs}
ifelse 2 copy known{2 copy get dup maxlength dict copy[/questiondown/space]{2
copy known{2 copy get 2 index/.notdef 3 -1 roll put pop exit}if pop}forall put
}{pop pop}ifelse dup NFD/FontName 3 -1 roll put NFD definefont pop end}bd
CP setpacking
(\004)cvn{}bd
% vim:ff=unix:
%%EOF
%%EndDocument
%%EndResource
%%BeginResource: encoding VIM-latin1
%%BeginDocument: /usr/share/vim/vim74/print/latin1.ps
%!PS-Adobe-3.0 Resource-Encoding
%%Title: VIM-latin1
%%Version: 1.0 0
%%EndComments
/VIM-latin1[
/.notdef /.notdef /.notdef /.notdef /.notdef /.notdef /.notdef /.notdef
/.notdef /.notdef /.notdef /.notdef /.notdef /.notdef /.notdef /.notdef
/.notdef /.notdef /.notdef /.notdef /.notdef /.notdef /.notdef /.notdef
/.notdef /.notdef /.notdef /.notdef /.notdef /.notdef /.notdef /.notdef
/space /exclam /quotedbl /numbersign /dollar /percent /ampersand /quotesingle
/parenleft /parenright /asterisk /plus /comma /minus /period /slash
/zero /one /two /three /four /five /six /seven
/eight /nine /colon /semicolon /less /equal /greater /question
/at /A /B /C /D /E /F /G
/H /I /J /K /L /M /N /O
/P /Q /R /S /T /U /V /W
/X /Y /Z /bracketleft /backslash /bracketright /asciicircum /underscore
/grave /a /b /c /d /e /f /g
/h /i /j /k /l /m /n /o
/p /q /r /s /t /u /v /w
/x /y /z /braceleft /bar /braceright /asciitilde /.notdef
/.notdef /.notdef /.notdef /.notdef /.notdef /.notdef /.notdef /.notdef
/.notdef /.notdef /.notdef /.notdef /.notdef /.notdef /.notdef /.notdef
/.notdef /.notdef /.notdef /.notdef /.notdef /.notdef /.notdef /.notdef
/.notdef /.notdef /.notdef /.notdef /.notdef /.notdef /.notdef /.notdef
/space /exclamdown /cent /sterling /currency /yen /brokenbar /section
/dieresis /copyright /ordfeminine /guillemotleft /logicalnot /hyphen /registered /macron
/degree /plusminus /twosuperior /threesuperior /acute /mu /paragraph /periodcentered
/cedilla /onesuperior /ordmasculine /guillemotright /onequarter /onehalf /threequarters /questiondown
/Agrave /Aacute /Acircumflex /Atilde /Adieresis /Aring /AE /Ccedilla
/Egrave /Eacute /Ecircumflex /Edieresis /Igrave /Iacute /Icircumflex /Idieresis
/Eth /Ntilde /Ograve /Oacute /Ocircumflex /Otilde /Odieresis /multiply
/Oslash /Ugrave /Uacute /Ucircumflex /Udieresis /Yacute /Thorn /germandbls
/agrave /aacute /acircumflex /atilde /adieresis /aring /ae /ccedilla
/egrave /eacute /ecircumflex /edieresis /igrave /iacute /icircumflex /idieresis
/eth /ntilde /ograve /oacute /ocircumflex /otilde /odieresis /divide
/oslash /ugrave /uacute /ucircumflex /udieresis /yacute /thorn /ydieresis]
/Encoding defineresource pop
% vim:ff=unix:
%%EOF
%%EndDocument
%%EndResource
%%EndProlog
%%BeginSetup
595 842 0 sps
1 nc
T F dt
T c
%%IncludeResource: font Courier
/_F0 /VIM-latin1 /Courier ref
/F0 10 /_F0 ffs
%%IncludeResource: font Courier-Bold
/_F1 /VIM-latin1 /Courier-Bold ref
/F1 10 /_F1 ffs
%%IncludeResource: font Courier-Oblique
/_F2 /VIM-latin1 /Courier-Oblique ref
/F2 10 /_F2 ffs
%%IncludeResource: font Courier-BoldOblique
/_F3 /VIM-latin1 /Courier-BoldOblique ref
/F3 10 /_F3 ffs
/UO -1 d
/UW 0.5 d
/BO -2.5 d
%%EndSetup
%%Page: 1 1
%%BeginPageSetup
sv
0 g
F0 sf
%%EndPageSetup
F1 sf
0 g
(<tzKnudsenLangmuirTotalPressureFvPatchScalarField.H[+]  11-03-21 16:44:13     Page 1)59.5 792.4 ms
F0 sf
0.753 0 0 r
(/*---------------------------------------------------------------------------*\\)59.5 772.4 ms
(  =========                 |)59.5 762.4 ms
(  \\\\      /  F ield         | OpenFOAM: The Open Source CFD Toolbox)59.5 752.4 ms
(   \\\\    /   O peration     |)59.5 742.4 ms
(    \\\\  /    A nd           | Copyright \(C\) 2011-2016 OpenFOAM Foundation)59.5 732.4 ms
(     \\\\/     M anipulation  |)59.5 722.4 ms
(-------------------------------------------------------------------------------)59.5 712.4 ms
(License)59.5 702.4 ms
(    This file is part of OpenFOAM.)59.5 692.4 ms
(    OpenFOAM is free software: you can redistribute it and/or modify it)59.5 672.4 ms
(    under the terms of the GNU General Public License as published by)59.5 662.4 ms
(    the Free Software Foundation, either version 3 of the License, or)59.5 652.4 ms
(    \(at your option\) any later version.)59.5 642.4 ms
(    OpenFOAM is distributed in the hope that it will be useful, but WITHOUT)59.5 622.4 ms
(    ANY WARRANTY; without even the implied warranty of MERCHANTABILITY or)59.5 612.4 ms
(    FITNESS FOR A PARTICULAR PURPOSE.  See the GNU General Public License)59.5 602.4 ms
(    for more details.)59.5 592.4 ms
(    You should have received a copy of the GNU General Public License)59.5 572.4 ms
(    along with OpenFOAM.  If not, see <http://www.gnu.org/licenses/>.)59.5 562.4 ms
(Class)59.5 542.4 ms
(    Foam::HertzKnudsenLangmuirTotalPressureFvPatchScalarField)59.5 532.4 ms
(Group)59.5 512.4 ms
(    grpInletBoundaryConditions grpOutletBoundaryConditions)59.5 502.4 ms
(Description)59.5 482.4 ms
(    This boundary condition provides a total pressure condition limited by the Hertz)59.5 472.4 ms
(-Knudsen-Langmuir relation. )59.5 462.4 ms
(    First the Hertz-Knudsen-Langmuir mass flow rate limitation is applied:)59.5 452.4 ms
(        \\f[)59.5 442.4 ms
(            p_p = p_0 - \\rho |U|/f \\sqrt{\\frac{2 \\pi R T}{M}})59.5 432.4 ms
(        \\f])59.5 422.4 ms
(        where)59.5 412.4 ms
(        \\vartable)59.5 402.4 ms
(            p_p     | incompressible pressure at patch [m2/s2])59.5 392.4 ms
(            p_0     | incompressible total pressure [m2/s2])59.5 382.4 ms
(            f       | evaporation coefficient, default 1)59.5 372.4 ms
(            M       | Molar mass [kg/mol])59.5 362.4 ms
(        \\endvartable)59.5 352.4 ms
(    Independent of the flow regime )59.5 332.4 ms
(    Four variants are possible:)59.5 322.4 ms
(    1. incompressible subsonic:)59.5 302.4 ms
(        \\f[)59.5 292.4 ms
(            p_p = p_0 - 0.5 |U|^2)59.5 282.4 ms
(                - |U|/f \\sqrt{\\frac{2 \\pi R T}{M}})59.5 272.4 ms
(        \\f])59.5 262.4 ms
(        where)59.5 252.4 ms
(        \\vartable)59.5 242.4 ms
(            p_p     | incompressible pressure at patch [m2/s2])59.5 232.4 ms
(            p_0     | incompressible total pressure [m2/s2])59.5 222.4 ms
(            U       | velocity)59.5 212.4 ms
(            f       | evaporation coefficient, default 1)59.5 202.4 ms
(            M       | Molar mass [kg/mol])59.5 192.4 ms
(        \\endvartable)59.5 182.4 ms
(    2. compressible subsonic:)59.5 162.4 ms
(        \\f[)59.5 152.4 ms
(            p_p = p_0 - 0.5 \\rho |U|^2)59.5 142.4 ms
(                -   )59.5 132.4 ms
(        \\f])59.5 122.4 ms
(        where)59.5 112.4 ms
(        \\vartable)59.5 102.4 ms
(            p_p     | pressure at patch [Pa])59.5 92.4 ms
(            p_0     | total pressure [Pa])59.5 82.4 ms
(            \\rho    | density [kg/m3])59.5 72.4 ms
(            U       | velocity)59.5 62.4 ms
(        \\endvartable)59.5 52.4 ms
re sp
%%PageTrailer
%%Page: 2 2
%%BeginPageSetup
sv
0 g
F0 sf
%%EndPageSetup
F1 sf
(<tzKnudsenLangmuirTotalPressureFvPatchScalarField.H[+]  11-03-21 16:44:13     Page 2)59.5 792.4 ms
F0 sf
0.753 0 0 r
(    3. compressible transonic \(\\f$\\gamma = 1\\f$\):)59.5 762.4 ms
(        \\f[)59.5 752.4 ms
(            p_p = \\frac{p_0}{1 + 0.5 \\psi |U|^2})59.5 742.4 ms
(        \\f])59.5 732.4 ms
(        where)59.5 722.4 ms
(        \\vartable)59.5 712.4 ms
(            p_p     | pressure at patch [Pa])59.5 702.4 ms
(            p_0     | total pressure [Pa])59.5 692.4 ms
(            G       | coefficient given by \\f$\\frac{\\gamma}{1-\\gamma}\\f$)59.5 682.4 ms
(        \\endvartable)59.5 672.4 ms
(    4. compressible supersonic \(\\f$\\gamma > 1\\f$\):)59.5 652.4 ms
(        \\f[)59.5 642.4 ms
(            p_p = \\frac{p_0}{\(1 + 0.5 \\psi G |U|^2\)^{\\frac{1}{G}}})59.5 632.4 ms
(        \\f])59.5 622.4 ms
(        where)59.5 612.4 ms
(        \\vartable)59.5 602.4 ms
(            p_p     | pressure at patch [Pa])59.5 592.4 ms
(            p_0     | total pressure [Pa])59.5 582.4 ms
(            \\gamma  | ratio of specific heats \(Cp/Cv\))59.5 572.4 ms
(            \\psi    | compressibility [m2/s2])59.5 562.4 ms
(            G       | coefficient given by \\f$\\frac{\\gamma}{1-\\gamma}\\f$)59.5 552.4 ms
(        \\endvartable)59.5 542.4 ms
(    The modes of operation are set by the dimensions of the pressure field)59.5 522.4 ms
(    to which this boundary condition is applied, the \\c psi entry and the value)59.5 512.4 ms
(    of \\c gamma:)59.5 502.4 ms
(    \\table)59.5 492.4 ms
(        Mode                    | dimensions | psi   | gamma)59.5 482.4 ms
(        incompressible subsonic | p/rho      |       |)59.5 472.4 ms
(        compressible subsonic   | p          | none  |)59.5 462.4 ms
(        compressible transonic  | p          | psi   | 1)59.5 452.4 ms
(        compressible supersonic | p          | psi   | > 1)59.5 442.4 ms
(    \\endtable)59.5 432.4 ms
(Usage)59.5 402.4 ms
(    \\table)59.5 392.4 ms
(        Property     | Description                | Required | Default value)59.5 382.4 ms
(        U            | Velocity field name        | no       | U)59.5 372.4 ms
(        phi          | Flux field name            | no       | phi)59.5 362.4 ms
(        rho          | Density field name         | no       | rho)59.5 352.4 ms
(        psi          | Compressibility field name | no       | none)59.5 342.4 ms
(        gamma        | \(Cp/Cv\)                    | no       | 1)59.5 332.4 ms
(        p0           | Total pressure             | yes      |)59.5 322.4 ms
(    \\endtable)59.5 312.4 ms
(    Example of the boundary condition specification:)59.5 292.4 ms
(    \\verbatim)59.5 282.4 ms
(    <patchName>)59.5 272.4 ms
(    {)59.5 262.4 ms
(        type            HertzKnudsenLangmuirTotalPressure;)59.5 252.4 ms
(        p0              uniform 1e5;)59.5 242.4 ms
(    })59.5 232.4 ms
(    \\endverbatim)59.5 222.4 ms
(See also)59.5 202.4 ms
(    Foam::fixedValueFvPatchField)59.5 192.4 ms
(SourceFiles)59.5 172.4 ms
(    HertzKnudsenLangmuirTotalPressureFvPatchScalarField.C)59.5 162.4 ms
(\\*---------------------------------------------------------------------------*/)59.5 142.4 ms
0.753 0 0.753 r
(#ifndef HertzKnudsenLangmuirTotalPressureFvPatchScalarField_H)59.5 122.4 ms
(#define HertzKnudsenLangmuirTotalPressureFvPatchScalarField_H)59.5 112.4 ms
(#include )59.5 92.4 ms
0 0 0.753 r
("fixedValueFvPatchFields.H")s
0.753 0 0 r
(// * * * * * * * * * * * * * * * * * * * * * * * * * * * * * * * * * * * * * //)59.5 72.4 ms
0 0.502 0 r
(namespace)59.5 52.4 ms
0 g
( Foam)s
re sp
%%PageTrailer
%%Page: 3 3
%%BeginPageSetup
sv
0 g
F0 sf
%%EndPageSetup
F1 sf
(<tzKnudsenLangmuirTotalPressureFvPatchScalarField.H[+]  11-03-21 16:44:13     Page 3)59.5 792.4 ms
F0 sf
({)59.5 772.4 ms
0.753 0 0 r
(/*---------------------------------------------------------------------------*\\)59.5 752.4 ms
(              Class HertzKnudsenLangmuirTotalPressureFvPatchScalarField Declaration)59.5 742.4 ms
(\\*---------------------------------------------------------------------------*/)59.5 732.4 ms
0 0.502 0 r
(class)59.5 712.4 ms
0 g
( HertzKnudsenLangmuirTotalPressureFvPatchScalarField)s
(:)59.5 702.4 ms
(    )59.5 692.4 ms
0 0.502 0 r
(public)s
0 g
( fixedValueFvPatchScalarField)s
({)59.5 682.4 ms
(    )59.5 672.4 ms
0.753 0 0 r
(// Private data)s
0 g
(        )59.5 652.4 ms
0.753 0 0 r
(//- Name of the temperature field)s
0 g
(        word TName_;)59.5 642.4 ms
(        )59.5 622.4 ms
0.753 0 0 r
(//- Name of the velocity field)s
0 g
(        word UName_;)59.5 612.4 ms
(        )59.5 592.4 ms
0.753 0 0 r
(//- Name of the flux transporting the field)s
0 g
(        word phiName_;)59.5 582.4 ms
(        )59.5 562.4 ms
0.753 0 0 r
(//- Name of the density field used to normalise the mass flux)s
0 g
(        )59.5 552.4 ms
0.753 0 0 r
(//- if necessary)s
0 g
(        word rhoName_;)59.5 542.4 ms
(        )59.5 522.4 ms
0.753 0 0 r
(//- Name of the compressibility field used to calculate the wave speed)s
0 g
(        word psiName_;)59.5 512.4 ms
(        )59.5 492.4 ms
0.753 0 0 r
(//- Heat capacity ratio)s
0 g
(        scalar gamma_;)59.5 482.4 ms
(        )59.5 462.4 ms
0.753 0 0 r
(//- Molecular mass)s
0 g
(        scalar M_;)59.5 452.4 ms
(        )59.5 432.4 ms
0.753 0 0 r
(//- Accomodation coefficient)s
0 g
(        scalar f_;)59.5 422.4 ms
(        )59.5 402.4 ms
0.753 0 0 r
(//- Total pressure)s
0 g
(        scalarField p0_;)59.5 392.4 ms
0 0.502 0 r
(public)59.5 362.4 ms
0 g
(:)s
(    )59.5 342.4 ms
0.753 0 0 r
(//- Runtime type information)s
0 g
(    TypeName\()59.5 332.4 ms
0 0 0.753 r
("HertzKnudsenLangmuirTotalPressure")s
0 g
(\);)s
(    )59.5 302.4 ms
0.753 0 0 r
(// Constructors)s
0 g
(        )59.5 282.4 ms
0.753 0 0 r
(//- Construct from patch and internal field)s
0 g
(        HertzKnudsenLangmuirTotalPressureFvPatchScalarField)59.5 272.4 ms
(        \()59.5 262.4 ms
(            )59.5 252.4 ms
0 0.502 0 r
(const)s
0 g
( fvPatch&,)s
(            )59.5 242.4 ms
0 0.502 0 r
(const)s
0 g
( DimensionedField<scalar, volMesh>&)s
(        \);)59.5 232.4 ms
(        )59.5 212.4 ms
0.753 0 0 r
(//- Construct from patch, internal field and dictionary)s
0 g
(        HertzKnudsenLangmuirTotalPressureFvPatchScalarField)59.5 202.4 ms
(        \()59.5 192.4 ms
(            )59.5 182.4 ms
0 0.502 0 r
(const)s
0 g
( fvPatch&,)s
(            )59.5 172.4 ms
0 0.502 0 r
(const)s
0 g
( DimensionedField<scalar, volMesh>&,)s
(            )59.5 162.4 ms
0 0.502 0 r
(const)s
0 g
( dictionary&)s
(        \);)59.5 152.4 ms
(        )59.5 132.4 ms
0.753 0 0 r
(//- Construct by mapping given HertzKnudsenLangmuirTotalPressureFvPatchScala)s
(rField)59.5 122.4 ms
0 g
(        )59.5 112.4 ms
0.753 0 0 r
(//  onto a new patch)s
0 g
(        HertzKnudsenLangmuirTotalPressureFvPatchScalarField)59.5 102.4 ms
(        \()59.5 92.4 ms
(            )59.5 82.4 ms
0 0.502 0 r
(const)s
0 g
( HertzKnudsenLangmuirTotalPressureFvPatchScalarField&,)s
(            )59.5 72.4 ms
0 0.502 0 r
(const)s
0 g
( fvPatch&,)s
(            )59.5 62.4 ms
0 0.502 0 r
(const)s
0 g
( DimensionedField<scalar, volMesh>&,)s
(            )59.5 52.4 ms
0 0.502 0 r
(const)s
0 g
( fvPatchFieldMapper&)s
re sp
%%PageTrailer
%%Page: 4 4
%%BeginPageSetup
sv
0 g
F0 sf
%%EndPageSetup
F1 sf
(<tzKnudsenLangmuirTotalPressureFvPatchScalarField.H[+]  11-03-21 16:44:13     Page 4)59.5 792.4 ms
F0 sf
(        \);)59.5 772.4 ms
(        )59.5 752.4 ms
0.753 0 0 r
(//- Construct as copy)s
0 g
(        HertzKnudsenLangmuirTotalPressureFvPatchScalarField)59.5 742.4 ms
(        \()59.5 732.4 ms
(            )59.5 722.4 ms
0 0.502 0 r
(const)s
0 g
( HertzKnudsenLangmuirTotalPressureFvPatchScalarField&)s
(        \);)59.5 712.4 ms
(        )59.5 692.4 ms
0.753 0 0 r
(//- Construct and return a clone)s
0 g
(        )59.5 682.4 ms
0 0.502 0 r
(virtual)s
0 g
( tmp<fvPatchScalarField> clone\(\) )s
0 0.502 0 r
(const)s
0 g
(        {)59.5 672.4 ms
(            )59.5 662.4 ms
0 0.502 0 r
(return)s
0 g
( tmp<fvPatchScalarField>)s
(            \()59.5 652.4 ms
(                )59.5 642.4 ms
0 0.502 0 r
(new)s
0 g
( HertzKnudsenLangmuirTotalPressureFvPatchScalarField\(*)s
0 0.502 0 r
(this)s
0 g
(\))s
(            \);)59.5 632.4 ms
(        })59.5 622.4 ms
(        )59.5 602.4 ms
0.753 0 0 r
(//- Construct as copy setting internal field reference)s
0 g
(        HertzKnudsenLangmuirTotalPressureFvPatchScalarField)59.5 592.4 ms
(        \()59.5 582.4 ms
(            )59.5 572.4 ms
0 0.502 0 r
(const)s
0 g
( HertzKnudsenLangmuirTotalPressureFvPatchScalarField&,)s
(            )59.5 562.4 ms
0 0.502 0 r
(const)s
0 g
( DimensionedField<scalar, volMesh>&)s
(        \);)59.5 552.4 ms
(        )59.5 532.4 ms
0.753 0 0 r
(//- Construct and return a clone setting internal field reference)s
0 g
(        )59.5 522.4 ms
0 0.502 0 r
(virtual)s
0 g
( tmp<fvPatchScalarField> clone)s
(        \()59.5 512.4 ms
(            )59.5 502.4 ms
0 0.502 0 r
(const)s
0 g
( DimensionedField<scalar, volMesh>& iF)s
(        \) )59.5 492.4 ms
0 0.502 0 r
(const)s
0 g
(        {)59.5 482.4 ms
(            )59.5 472.4 ms
0 0.502 0 r
(return)s
0 g
( tmp<fvPatchScalarField>)s
(            \()59.5 462.4 ms
(                )59.5 452.4 ms
0 0.502 0 r
(new)s
0 g
( HertzKnudsenLangmuirTotalPressureFvPatchScalarField\(*)s
0 0.502 0 r
(this)s
0 g
(, iF\))s
(            \);)59.5 442.4 ms
(        })59.5 432.4 ms
(    )59.5 402.4 ms
0.753 0 0 r
(// Member functions)s
0 g
(        )59.5 382.4 ms
0.753 0 0 r
(// Access)s
0 g
(            )59.5 362.4 ms
0.753 0 0 r
(//- Return the name of the velocity field)s
0 g
(            )59.5 352.4 ms
0 0.502 0 r
(const)s
0 g
( word& UName\(\) )s
0 0.502 0 r
(const)s
0 g
(            {)59.5 342.4 ms
(                )59.5 332.4 ms
0 0.502 0 r
(return)s
0 g
( UName_;)s
(            })59.5 322.4 ms
(            )59.5 302.4 ms
0.753 0 0 r
(//- Return reference to the name of the velocity field)s
0 g
(            )59.5 292.4 ms
0.753 0 0 r
(//  to allow adjustment)s
0 g
(            word& UName\(\))59.5 282.4 ms
(            {)59.5 272.4 ms
(                )59.5 262.4 ms
0 0.502 0 r
(return)s
0 g
( UName_;)s
(            })59.5 252.4 ms
(            )59.5 232.4 ms
0.753 0 0 r
(//- Return the name of the flux field)s
0 g
(            )59.5 222.4 ms
0 0.502 0 r
(const)s
0 g
( word& phiName\(\) )s
0 0.502 0 r
(const)s
0 g
(            {)59.5 212.4 ms
(                )59.5 202.4 ms
0 0.502 0 r
(return)s
0 g
( phiName_;)s
(            })59.5 192.4 ms
(            )59.5 172.4 ms
0.753 0 0 r
(//- Return reference to the name of the flux field)s
0 g
(            )59.5 162.4 ms
0.753 0 0 r
(//  to allow adjustment)s
0 g
(            word& phiName\(\))59.5 152.4 ms
(            {)59.5 142.4 ms
(                )59.5 132.4 ms
0 0.502 0 r
(return)s
0 g
( phiName_;)s
(            })59.5 122.4 ms
(            )59.5 102.4 ms
0.753 0 0 r
(//- Return the name of the density field)s
0 g
(            )59.5 92.4 ms
0 0.502 0 r
(const)s
0 g
( word& rhoName\(\) )s
0 0.502 0 r
(const)s
0 g
(            {)59.5 82.4 ms
(                )59.5 72.4 ms
0 0.502 0 r
(return)s
0 g
( rhoName_;)s
(            })59.5 62.4 ms
re sp
%%PageTrailer
%%Page: 5 5
%%BeginPageSetup
sv
0 g
F0 sf
%%EndPageSetup
F1 sf
(<tzKnudsenLangmuirTotalPressureFvPatchScalarField.H[+]  11-03-21 16:44:13     Page 5)59.5 792.4 ms
F0 sf
(            )59.5 772.4 ms
0.753 0 0 r
(//- Return reference to the name of the density field)s
0 g
(            )59.5 762.4 ms
0.753 0 0 r
(//  to allow adjustment)s
0 g
(            word& rhoName\(\))59.5 752.4 ms
(            {)59.5 742.4 ms
(                )59.5 732.4 ms
0 0.502 0 r
(return)s
0 g
( rhoName_;)s
(            })59.5 722.4 ms
(            )59.5 702.4 ms
0.753 0 0 r
(//- Return the name of the compressibility field)s
0 g
(            )59.5 692.4 ms
0 0.502 0 r
(const)s
0 g
( word& psiName\(\) )s
0 0.502 0 r
(const)s
0 g
(            {)59.5 682.4 ms
(                )59.5 672.4 ms
0 0.502 0 r
(return)s
0 g
( psiName_;)s
(            })59.5 662.4 ms
(            )59.5 642.4 ms
0.753 0 0 r
(//- Return reference to the name of the compressibility field)s
0 g
(            )59.5 632.4 ms
0.753 0 0 r
(//  to allow adjustment)s
0 g
(            word& psiName\(\))59.5 622.4 ms
(            {)59.5 612.4 ms
(                )59.5 602.4 ms
0 0.502 0 r
(return)s
0 g
( psiName_;)s
(            })59.5 592.4 ms
(            )59.5 572.4 ms
0.753 0 0 r
(//- Return the heat capacity ratio)s
0 g
(            scalar gamma\(\) )59.5 562.4 ms
0 0.502 0 r
(const)s
0 g
(            {)59.5 552.4 ms
(                )59.5 542.4 ms
0 0.502 0 r
(return)s
0 g
( gamma_;)s
(            })59.5 532.4 ms
(            )59.5 512.4 ms
0.753 0 0 r
(//- Return reference to the heat capacity ratio to allow adjustment)s
0 g
(            scalar& gamma\(\))59.5 502.4 ms
(            {)59.5 492.4 ms
(                )59.5 482.4 ms
0 0.502 0 r
(return)s
0 g
( gamma_;)s
(            })59.5 472.4 ms
(            )59.5 452.4 ms
0.753 0 0 r
(//- Return the total pressure)s
0 g
(            )59.5 442.4 ms
0 0.502 0 r
(const)s
0 g
( scalarField& p0\(\) )s
0 0.502 0 r
(const)s
0 g
(            {)59.5 432.4 ms
(                )59.5 422.4 ms
0 0.502 0 r
(return)s
0 g
( p0_;)s
(            })59.5 412.4 ms
(            )59.5 392.4 ms
0.753 0 0 r
(//- Return reference to the total pressure to allow adjustment)s
0 g
(            scalarField& p0\(\))59.5 382.4 ms
(            {)59.5 372.4 ms
(                )59.5 362.4 ms
0 0.502 0 r
(return)s
0 g
( p0_;)s
(            })59.5 352.4 ms
(        )59.5 322.4 ms
0.753 0 0 r
(// Mapping functions)s
0 g
(            )59.5 302.4 ms
0.753 0 0 r
(//- Map \(and resize as needed\) from self given a mapping object)s
0 g
(            )59.5 292.4 ms
0 0.502 0 r
(virtual)s
0 g
( )s
0 0.502 0 r
(void)s
0 g
( autoMap)s
(            \()59.5 282.4 ms
(                )59.5 272.4 ms
0 0.502 0 r
(const)s
0 g
( fvPatchFieldMapper&)s
(            \);)59.5 262.4 ms
(            )59.5 242.4 ms
0.753 0 0 r
(//- Reverse map the given fvPatchField onto this fvPatchField)s
0 g
(            )59.5 232.4 ms
0 0.502 0 r
(virtual)s
0 g
( )s
0 0.502 0 r
(void)s
0 g
( rmap)s
(            \()59.5 222.4 ms
(                )59.5 212.4 ms
0 0.502 0 r
(const)s
0 g
( fvPatchScalarField&,)s
(                )59.5 202.4 ms
0 0.502 0 r
(const)s
0 g
( labelList&)s
(            \);)59.5 192.4 ms
(        )59.5 162.4 ms
0.753 0 0 r
(// Evaluation functions)s
0 g
(            )59.5 142.4 ms
0.753 0 0 r
(//- Inherit updateCoeffs from fixedValueFvPatchScalarField)s
0 g
(            )59.5 132.4 ms
0 0.502 0 r
(using)s
0 g
( fixedValueFvPatchScalarField::updateCoeffs;)s
(            )59.5 112.4 ms
0.753 0 0 r
(//- Update the coefficients associated with the patch field)s
0 g
(            )59.5 102.4 ms
0.753 0 0 r
(//  using the given patch total pressure and velocity fields)s
0 g
(            )59.5 92.4 ms
0 0.502 0 r
(virtual)s
0 g
( )s
0 0.502 0 r
(void)s
0 g
( updateCoeffs)s
(            \()59.5 82.4 ms
(                )59.5 72.4 ms
0 0.502 0 r
(const)s
0 g
( scalarField& p0p,)s
(                )59.5 62.4 ms
0 0.502 0 r
(const)s
0 g
( vectorField& Up)s
(            \);)59.5 52.4 ms
re sp
%%PageTrailer
%%Page: 6 6
%%BeginPageSetup
sv
0 g
F0 sf
%%EndPageSetup
F1 sf
(<tzKnudsenLangmuirTotalPressureFvPatchScalarField.H[+]  11-03-21 16:44:13     Page 6)59.5 792.4 ms
F0 sf
(            )59.5 762.4 ms
0.753 0 0 r
(//- Update the coefficients associated with the patch field)s
0 g
(            )59.5 752.4 ms
0 0.502 0 r
(virtual)s
0 g
( )s
0 0.502 0 r
(void)s
0 g
( updateCoeffs\(\);)s
(        )59.5 722.4 ms
0.753 0 0 r
(//- Write)s
0 g
(        )59.5 712.4 ms
0 0.502 0 r
(virtual)s
0 g
( )s
0 0.502 0 r
(void)s
0 g
( write\(Ostream&\) )s
0 0.502 0 r
(const)s
0 g
(;)s
(};)59.5 702.4 ms
0.753 0 0 r
(// * * * * * * * * * * * * * * * * * * * * * * * * * * * * * * * * * * * * * //)59.5 672.4 ms
0 g
(} )59.5 652.4 ms
0.753 0 0 r
(// End namespace Foam)s
(// * * * * * * * * * * * * * * * * * * * * * * * * * * * * * * * * * * * * * //)59.5 632.4 ms
0.753 0 0.753 r
(#endif)59.5 612.4 ms
0.753 0 0 r
(// ************************************************************************* //)59.5 592.4 ms
re sp
%%PageTrailer
%%Trailer
%%Pages: 6
%%EOF
